"Country","Sex","Value"
"AUT",1,82.6023816439152
"AUT",2,72.5589225589226
"BEL",1,80.7449494949495
"BEL",2,63.4211063482343
"BGR",1,81.9341126461212
"BGR",2,69.1787439613527
"DEU",1,69.5026587425712
"DEU",2,54.2788025400665
"DNK",1,86.5630205441421
"DNK",2,69.6262995223377
"ESP",1,96.8272620446534
"ESP",2,92.6170468187275
"EST",1,82.7833572453372
"EST",2,67.5598428010004
"FIN",1,73.1400628711142
"FIN",2,58.959920503478
"FRA",1,85.3744776599164
"FRA",2,69.6696696696697
"GBR",1,91.2886449003178
"GBR",2,78.2446440912232
"GRC",1,84.4050258684405
"GRC",2,72.1514508138712
"HRV",1,90.2422834384335
"HRV",2,78.6123032904149
"HUN",1,85.3684210526316
"HUN",2,74.2521367521367
"IRL",1,90.0458877515002
"IRL",2,79.5048143053645
"ITA",1,90.3660220994475
"ITA",2,83.6643066827836
"LTU",1,86.7853795688847
"LTU",2,71.2695547533093
"LUX",1,82.6313827804696
"LUX",2,68.1192660550459
"LVA",1,84.9524596940885
"LVA",2,74.4489795918367
"NLD",1,66.9259259259259
"NLD",2,52.364990689013
"POL",1,86.4191942055229
"POL",2,73.9092111062142
"PRT",1,96.5215009586415
"PRT",2,89.3032117583016
"SVK",1,81.6144975288303
"SVK",2,70.0754147812971
"SVN",1,89.2450879007239
"SVN",2,74.3794579172611
"SWE",1,87.2207982424021
"SWE",2,66.996699669967
