"","CNT","podstawoweLubBrak","gimnazjalne","srednie","policealne","wyzsze","count"
"1","ARE",641,1083,8253,4331,6487,14167
"2","AUS",903,2576,6488,2486,3741,14530
"3","AUT",117,331,4868,160,2269,7007
"4","BEL",392,806,5810,1973,3771,9651
"5","BGR",92,409,3755,1715,1693,5928
"6","BRA",5325,3836,6697,2804,2932,23141
"7","CAN",400,1492,12285,5680,8180,20058
"8","CHE",206,910,3464,551,2520,5860
"9","CHL",321,896,3896,1158,2171,7053
"10","CRI",2024,988,1698,2128,1781,6866
"11","CZE",171,264,4447,835,1234,6894
"12","DEU",90,1761,1559,1103,1729,6504
"13","DOM",516,863,1388,665,807,4740
"14","DZA",814,826,869,616,333,5519
"15","EST",42,654,3539,1780,2024,5587
"16","FIN",164,354,3953,621,2872,5882
"17","GBR",217,1081,7243,2576,3917,14157
"18","GRC",333,643,3005,711,1616,5532
"19","HKG",813,1049,2944,643,922,5359
"20","HRV",30,366,4167,1503,1782,5809
"21","HUN",25,444,4118,1126,1732,5658
"22","IDN",2134,1022,2011,218,366,6513
"23","IRL",273,991,2766,1495,1858,5741
"24","ISL",38,431,1796,656,1203,3371
"25","ISR",251,437,4224,1239,2497,6598
"26","ITA",317,3173,5906,3064,2459,11583
"27","KOR",63,243,3994,330,2008,5581
"28","KSV",227,435,2478,1148,1435,4826
"29","LBN",878,443,1611,432,833,4546
"30","LTU",77,688,3892,2624,2166,6525
"31","LUX",650,689,2257,1036,1692,5299
"32","LVA",50,397,3134,1925,1548,4869
"33","MAC",1062,1263,1922,718,929,4476
"34","MDA",136,1343,2389,2021,1270,5325
"35","MKD",85,625,2416,577,1048,5324
"36","MLT",212,1294,1417,1114,853,3634
"37","NLD",300,2073,1706,2164,2003,5385
"38","NOR",64,324,3008,1866,1806,5456
"39","NZL",141,529,2106,993,1116,4520
"40","PER",589,942,4327,1494,2265,6971
"41","PRT",2435,1823,1957,594,1081,7325
"42","QAT",678,966,6456,1843,5420,12083
"43","QCH",1432,4085,3647,1207,2009,9841
"44","ROU",225,572,3630,1695,1648,4876
"45","RUS",17,961,3267,1178,3745,6036
"46","SGP",696,421,4025,2608,2232,6115
"47","SVK",52,203,4871,1036,1106,6350
"48","SVN",64,462,4752,1802,1796,6406
"49","TTO",472,274,2242,981,871,4692
"50","TUN",984,634,2349,783,1046,5375
"51","URY",1217,1406,1423,583,761,6062
"52","USA",379,622,3379,942,1694,5712
